…
Query Nr. 12
-- In welchem Jahren war die Wirtschaft ein Thema in Volksabstimmungen?
SELECT T.jahr FROM abstimmungsvorlagen_seit_1971 as T JOIN spatial_unit as S on T.spatialunit_uid = S.spatialunit_uid WHERE S.name_de='Schweiz' AND S.country=TRUE AND T.thema LIKE '%Wirtschaft%' AND anzahl_abstimmungsvorlagen != 0 ORDER BY jahr DESC;
=======================================================
# A tibble: 36 × 1
    jahr
   <dbl>
 1  2022
 2  2020
 3  2020
 4  2018
 5  2018
 6  2017
 7  2016
 8  2014
 9  2013
10  2012
# ℹ 26 more rows
# ℹ Use `print(n = ...)` to see more rows
…
Query Nr. 19
-- In wievielen Jahren gab es Volksabstimmungen zum Thema Aussenpolitik?
SELECT COUNT(jahr) as anzahl_jahre_aussenpolitik FROM abstimmungsvorlagen_seit_1971 as T JOIN spatial_unit as S on T.spatialunit_uid = S.spatialunit_uid WHERE S.name_de='Schweiz' AND S.country=TRUE AND anzahl_abstimmungsvorlagen != 0 AND T.thema LIKE '%Aussenpolitik%';
=======================================================
# A tibble: 1 × 1
  anzahl_jahre_aussenpolitik
                       <int>
1                         18

Query Nr. 20
-- In welchen Jahren war Sicherheit ein Thema bei Volksabstimmungen?
SELECT jahr FROM abstimmungsvorlagen_seit_1971 as T JOIN spatial_unit as S on T.spatialunit_uid = S.spatialunit_uid WHERE S.name_de='Schweiz' AND S.country=TRUE AND anzahl_abstimmungsvorlagen != 0 AND T.thema LIKE '%Sicherheit%' ORDER BY jahr DESC;
=======================================================
# A tibble: 22 × 1
    jahr
   <dbl>
 1  2021
 2  2020
 3  2019
 4  2016
 5  2014
 6  2013
 7  2003
 8  2001
 9  2000
10  1998
# ℹ 12 more rows
# ℹ Use `print(n = ...)` to see more rows
